\contentsline {chapter}{\numberline {第1章}序論}{2}{chapter.1}
\contentsline {chapter}{\numberline {第2章}回折格子分光による分光の原理}{4}{chapter.2}
\contentsline {section}{\numberline {2.1}回折格子による分光}{4}{section.2.1}
\contentsline {subsection}{\numberline {2.1.1}分光}{4}{subsection.2.1.1}
\contentsline {subsection}{\numberline {2.1.2}回折格子}{4}{subsection.2.1.2}
\contentsline {section}{\numberline {2.2}水素原子の特性X線スペクトル}{6}{section.2.2}
\contentsline {subsection}{\numberline {2.2.1}バルマー系列}{6}{subsection.2.2.1}
\contentsline {section}{\numberline {2.3}デジタルカメラによる撮影}{7}{section.2.3}
\contentsline {subsection}{\numberline {2.3.1}デジタルカメラの撮影過程}{7}{subsection.2.3.1}
\contentsline {chapter}{\numberline {第3章}実験装置}{12}{chapter.3}
\contentsline {section}{\numberline {3.1}回折格子分光器}{12}{section.3.1}
\contentsline {section}{\numberline {3.2}光源}{13}{section.3.2}
\contentsline {subsection}{\numberline {3.2.1}水素スペクトル管とは}{13}{subsection.3.2.1}
\contentsline {subsection}{\numberline {3.2.2}電球}{13}{subsection.3.2.2}
\contentsline {section}{\numberline {3.3}デジタルカメラ}{13}{section.3.3}
\contentsline {chapter}{\numberline {第4章}測定}{19}{chapter.4}
\contentsline {section}{\numberline {4.1}測定系の配置}{19}{section.4.1}
\contentsline {section}{\numberline {4.2}デジタルカメラの設定}{20}{section.4.2}
\contentsline {subsection}{\numberline {4.2.1}撮影形式}{20}{subsection.4.2.1}
\contentsline {subsection}{\numberline {4.2.2}ISO感度}{20}{subsection.4.2.2}
\contentsline {subsection}{\numberline {4.2.3}その他の設定}{21}{subsection.4.2.3}
\contentsline {section}{\numberline {4.3}スペクトラムの撮影}{21}{section.4.3}
\contentsline {chapter}{\numberline {第5章}実験データの解析}{22}{chapter.5}
\contentsline {section}{\numberline {5.1}モザイクデータの現像}{22}{section.5.1}
\contentsline {subsection}{\numberline {5.1.1}RAW形式ファイルの変換}{22}{subsection.5.1.1}
\contentsline {subsection}{\numberline {5.1.2}変換の詳細手順}{22}{subsection.5.1.2}
\contentsline {subsection}{\numberline {5.1.3}現像後の画像}{23}{subsection.5.1.3}
\contentsline {section}{\numberline {5.2}強度ヒストグラムの作成}{24}{section.5.2}
\contentsline {subsection}{\numberline {5.2.1}スペクトラム画像の切り取り}{24}{subsection.5.2.1}
\contentsline {subsection}{\numberline {5.2.2}切り取り後の画像}{24}{subsection.5.2.2}
\contentsline {subsection}{\numberline {5.2.3}強度ヒストグラムの作成}{24}{subsection.5.2.3}
\contentsline {subsubsection}{強度ヒストグラムの作成方法の詳細手順}{28}{section*.2}
\contentsline {section}{\numberline {5.3}ヒストグラムから得られたデータ}{29}{section.5.3}
\contentsline {section}{\numberline {5.4}画像のピクセル番号の較正}{30}{section.5.4}
\contentsline {subsection}{\numberline {5.4.1}水素のスペクトラム}{30}{subsection.5.4.1}
\contentsline {subsection}{\numberline {5.4.2}ピクセル番号の較正}{31}{subsection.5.4.2}
\contentsline {section}{\numberline {5.5}スペクトル領域の考察}{32}{section.5.5}
\contentsline {subsection}{\numberline {5.5.1}バックグラウンド}{32}{subsection.5.5.1}
\contentsline {subsection}{\numberline {5.5.2}測定可能領域の考察}{32}{subsection.5.5.2}
\contentsline {subsection}{\numberline {5.5.3}波長較正}{32}{subsection.5.5.3}
\contentsline {subsection}{\numberline {5.5.4}測定可能な領域の決定}{33}{subsection.5.5.4}
\contentsline {chapter}{\numberline {第6章}結論}{34}{chapter.6}
\contentsline {chapter}{\numberline {第7章}まとめ}{35}{chapter.7}
\contentsline {section}{\numberline {7.1}まとめ}{35}{section.7.1}
