こんばんは
============


高岸広季です。
------------


> 今日はmarkdown to 論文について紹介に上がりました。
> やぁ。


### でも

* 箇条書きとか
* ほんとにできるのかなって
* おもうね。[リンクだよ。](http://localhost:8000/)

そもそも、画像の貼り付けとか、めんどくさくね？グラフの管理とかどうやってもめんどくさくね？

1. それでもなんとか
2. やりましょう。

![img](figures/gs.svg)

#### やるしかねえ4
##### tarusikaneeedonadada5
###### level6
